{
  "count": 9,
  "next": "http://wallet-dev-nginx.dev-auto.wallet.io/api/v1/wallets/?limit=5&offset=5&status=FINALIZED",
  "previous": null,
  "results": [
    {
      "id": "6729283f-db1c-4e4c-8a52-aae7580fad9c",
      "name": "Wallet 1",
      "max_amount": null,
      "min_approvals": null,
      "members": [
        {
          "id": "8f14a31d-8e25-4fd3-8a7c-464cf0ad2c38",
          "user": "bigrussianboss@gmail.com",
          "access_level": "Read-only",
          "encrypted_keys": "",
          "created_at": "2021-08-12T07:30:53.564536Z",
          "updated_at": "2021-08-12T07:30:53.564556Z"
        },
        {
          "id": "98b2c81b-4d6f-4afe-bef0-7376d4fcfa0d",
          "user": "bigrussianboss1@gmail.com",
          "access_level": "Owner",
          "encrypted_keys": "-----BEGIN PGP MESSAGE-----\n\nwV4DfNZBpwyqyTMSAQdA7+LgsEib1LbsG37PHkCvQBgKkqO52GDek/z15LXs\nYVUwXaMlJnhbC7WxZyzdBHVIs2bwb09GFvZ1RJAieikqTf6jeF5vs4ZTKR2p\nUpXTha0I0sfdATifJiKsRyZZTuJ1Ofc+vTYaB/AgKlILBrxtAo6du6Yc3Ylq\nfDzrA8XXMgtQlZWGIloipeOR3Vukzr2xdn/Ed9feIcrnc7cYQQfI0qiN79aR\n9fZDHfyK2ZvQzGQXhZlY8C2kBhRTKDaeSnodW7wfnalSR78MYMfaNuQySzbQ\nBKmRXVP5JE/XxqIVIu+/K77c0ZLNckHxechko6Whrus0jodEYfzeLKus5isg\nRJSBVPi5nLdUJFZhgV1DwS8gdZvP39f83j/d8zXTHxNOWn5yeZMiANAvbDmz\n4SmbrVFgq59SlK8hnubMwVJ20Wtx90JMoEwt3mHUVoQDDTXnEOa9ODuLtzRo\nATkJ7KxbWHlneljapz5fk805N/yVYmRZR9X5U3I2svnyWO2Z0JflStGIlYbS\nxTrgw/eCDaNyqk+oZfqlIgSt3Ign639/BxTxTlkU7a+tswBIhMivnu3ZWFuN\nUwYOYg2Z6wORQgKvBsrDrHzF4Zfv3JwhQ6qj9GVxUfRQQD8mpQ+qc6Nscqti\nNkJryzmz4nBd/1J0YSr2NevFWwvWGSSoq0f648oZfCg8ca3JwZXzeqmxvfjF\ntNZduGULKTK2c+ts/wRN74pwXxWAuFaxDG4dSWVIms4bCY359IbzXxFeWQo5\nsDi7Zeh2c3FdqZth7Vckpbogc93P5srbFfY3IF/u3ybdLN8e85AfnCzCM4my\nqqPznpDL3VnHV6xjaAuq7FgaKclzFcLogHStls0WUnVucehQMGcgnrWwxTF/\nBqRjkHrYkJkg6zAuBTxFcuN3XfFeAk7+D/gz7YDWd35Fi5pO5DXB/qKHVhrb\nbgb7R1fsB9JFRGIsYeDT7/pUVC2ZLDU83tz0Iw7gM7LUOwFGbvt7quqvJiHe\niI3ARsBo4vuvaj5gYuucmq0jR5h1lO+N8VYpZ7gpM5IbmhgqxIMXUmWiolMH\ns5qoC9bFt8rCyvBCdtoCZSbiH0jf1H0QzUGOMx4d/a+NCguO3qtJyTiK1MKx\nqLjd43oIB4zr68sU15trq8Ay21z4FWcI/5btMWgGYtxWpvXLEW5+G9MsFAbw\nwZ1aMQCpJM6KIyWtpjM5o/SgtYKdj+W0NMcksbxvbkCTvh55VY/ZC5KIOynt\ndImdMXxQgAdHeGX+VLrM4JdS8vQgp9CNGNXyTl5BGAQolVRtfCmPdMEIGCP4\n14FySTUVcMloSsP6tMowgwpT2qL1WythAAXIErosizelNbXlRigK0lzYAZSL\n8FJbiXSFKq8O+Q1frTWy4YcU4KMbIcwnnCnGomSD1kgpWMnk+lL/j516s/Pk\nSFAofR3c/13qTcaBMBFaxI/7aej0PZ1qYeTlcCwQu++hkerXlMqBRY503q3y\nSylM9v3qr3XOehQHJN5ndHR4XG2WFE37WqlArypi90l3nXBYd2SULh+u12X9\nGFx/oAvU4AbWk24xaRxxp/TfQ2GXp+Lu/a4EMpNnv9pajRK4sbsrxat1KGY1\niMiVEH6KguNx24QDEz4bNzrQz/PwtB3CQAR3q8q50WRLbkRMhk9oUuGa2I0M\n97z52n0E/Mknljj4kUZG/iqofu6fhPEcp5w5WeARSiKCk4aZI8rtLYky6Gb9\n8V44xSY98ES+rw8k/yfpXJLxJItFqlbHZ3T+BQwrfxRwgSwUm7ufzXznRDZL\nIx6Tvdv09faQeURRFQ6QymV2mlrhhqARfMmRSf+kNIm2dB1zMesWhaZ/vKOU\ncGBXekmE75TJdp0tcVMx5cN0C/018xKo0+SgUrYg0fiGgRltXMRZ5J/M+Yrm\nyI7hc7CplcrNu1/f9/Cl6G74xMlZoNCgktpjgMdla8SWgtB0+sNNqCeDLeq3\nssNP2MidJ52IbXGENYHpyL5K+oo4kah1KRzWnIW8YUsuJuxkUCKVPlGbFz0G\n5xvX45jnk9Ii/2OgxJ/FvCsWxbz48DMuZcNADvEea2kehND999SXaZ9nQSnR\nn2sSVQdBWwQYFsMJ9PqgBvW8Bk2AjYGibzjiwDpN6CCj7LzoDukZWtVNen3v\n8bqubtzjjbKnFfDJoDDglhZfR1dyiUQ9uF2YZqZ37cdoIkD2SyLBL2g8BRY7\nh+ZZCh+m3l75sfEMOzpyQ/2e+pDbzhWbDTLN9ChV9xpO0ijf6b9D+Ra+8lGH\nW4zggBtCDs/kAIzPcBK2QDzlgDA8dAXJsappIcqJ2i0MHiZ2uGGniwkt0CHy\nFFha/BNW3+bIwcCe9ii8RqrOQa+n9tBEBL2K554KgGHcv/gV/klP5dNU5Zof\ncyH50j5/ue/09jII/9ApX3WsKqa0WZv1JMtWhhHqEBRD5VnZ5IhRt3AP07b0\nlvHPD3CKbH4PR23A3ewJjsTupZczEU0S9qvLjPtQS3OWCX9GVCL8fU2dUZqR\nyuz/R3zkHxLgU9qUiokalbnwBo/O6X8Juud9/DoqvAl1W51a61jYfcfGfUPc\nPa+gtX0bGYj18wU6/AVXs5OfwIPcx5yl50nfSK7aqPxO0FzC6eX69bogIiq0\nhYLVPFNdlFP62Rp0eUsWwOucgiQkQDRUdpQJtvNHQwZr73rzBg+N3HQOUMu7\nhZqFVmcHaRKgcL83KwuH67eyCOD40YZ9U9vMHQzZykmJYLyg73PMbLXQthhE\n7mzKA5tgDxI7NBPbfq7fEOwBk4i7zQkGvSLQvN2xjwAtZgxDUBkTCqszthfW\nW/+kxVZVq270cGVAYDKti9uiqvyy6UEZd/EKUqQnkR08XTjfm7wDGJZ236Hl\npldUCPeXCN9rNAxTsg5jVX81mz4hpGsh8/jEY2dA3+aBD++mLoObUuY63wbe\nsBgJ2ptdz4JO9f/GOsa/RXf8N3fyIwtsnZapUQXkWYr7NiFpDUZENI1TeYc+\nK606gA51MVRx6cM8q/l4wlN85uz/lW//bH2uTi+YSc4sOgHrsnve6LbSU4J7\nEN9lAl0deFRS\n=hTya\n-----END PGP MESSAGE-----",
          "created_at": "2021-08-12T07:29:55.037030Z",
          "updated_at": "2021-08-12T07:30:21.733228Z"
        }
      ],
      "created_at": "2021-08-12T07:29:55.034499Z",
      "updated_at": "2021-08-12T07:29:55.034518Z",
      "height": 902706,
      "address": "52GGy2mQrE9fc2QHSNnkqLEnmsXUEYuQR9Yh4eX8mZvU2Y3QyCypx1E8hL6QGg1xQrFu85QVe2xztJ2dexjBUmQ1RjCX7aB",
      "balance": "0",
      "unlocked_balance": "0",
      "status": "FINALIZED"
    },
    {
      "id": "f4ee81ed-277e-4712-b64a-062fe8540854",
      "name": "Wallet",
      "max_amount": null,
      "min_approvals": null,
      "members": [
        {
          "id": "97a79db1-d216-4d46-9044-8457e0e4f6a3",
          "user": "bigrussianboss@gmail.com",
          "access_level": "Owner",
          "encrypted_keys": "-----BEGIN PGP MESSAGE-----\n\nwV4DfzC4jqIlG84SAQdAGHOxUllmAdEzFhGO6FNCitW4xokvTmc6tCIMaW5f\nuAMwzJuOMB1XcIjl1sEHJD1mTR+egZhaLp2xdLP1/2lLK2TpuFOI8oNmItkd\nfDmRKoE+0sfVAYiqbo6xp2bM2ury6ZQUwpJgwxOpcbsBurVxieHM0csUWXpz\nm+8XiwxnBek/crbMZRJ9VgqaVS6WRAJcSReFRDGgMXz2HexG+KycEm6Etl1p\ncjX7ciLrUoekGKwa2RrUFu9SJr1YUqqZcffRYk/Ke4LQxobIjm9MoRmleTg+\nz5M23+xkldSPrUTA0v1ExNDlhsMljqTe5E6NXTbBCvPoaAI6XzDd60mT79hB\nprI2VE+rt1QuoCGmzWWr1oMlvMsrYT0YkB53jaPgKUIcOhnv/1fyUiHCJDSB\nT84L4v/SEGvmaZItb6ECZMc/ihCwlDlih6hcGeXbEDa4TdpqTIC5eP2Apxs2\n/HveKqp3mYK5NI++/jU+36+u3yWQvyrqN/HIITZHZ+i8Cfk1O64fy2RdyPNk\nG+oPMQ4NhK2aZ5v96G4qqQYwcFTgbICDVwN+m8V/3KD8h6XCI+hXDi4palVS\nJKFB2u6a8Cp27MFGHhPgTGAxFJWV9wuvsCUpPN9p+6tnuOqxmyNgRfBf0Ulx\nGJ9AlPIlnwWwiIUAdNIVgUcK8boUQk/9VQHdqBPfIllXkWPA64nxKNPNNbB1\nCD3WYezxWbi6VVsGckqD3WwwTifhg48dkio9cZ8MbpD7g54Moe4rhH7zvoQE\n2GcKCleTavmlbja29FHMAWIzYeYHRSBNEdv/oBQsVE8wvLew6f5qxH/EfFMa\nQ75/Wv6FZtk7qqJLddj4tzCI06a1T0+CQdg3aaWHjz+BjzUxm1f+K6s3oNqF\ncMVUqOyRsKKBFN3cXK0hZ9tQ2ePKXGYUGK1fJl/HoZ2ipPdH2IrN91p8vCRg\n1cW39uFwCuPW9hIzSBnKqYguxn5sCE60Sr3RBmTri7+V2fBREt7PGPDSRE1S\nkX1EXy6BytT5FQJe4N9JBfOa+h2mxVFtCZMK085VaCUrdhT7d9NkoDeA4a8d\n+odtawHwYoIUEtkI6v89kdX10IoI6Y9yagtLnR7WdFYF5h+juzvZqigW2mzr\n3Xx6S5tlN7XOaXjQs6HFaKTnkerhYaD5rlGhrIwwP3cNGRJ5geHL1FrnisJf\nZoUKiFjESVXzap2VUnBgaM3JAwdaHDYUC+AvR6M904kbK+V5aSENo40dNEid\nK8nR3jzQyKio4ddwbAhv9nNReQ8gzhVa71oXYeM9jrLCc9yYiRI7nxLrJCjG\nZDppBFxBk1ZgCnOU2LDHEFrJNFcfCRE5xGKNpyeCGmGiWQUeDLGwzHbqKzHV\nR+Bcq4DlMM+kIrjyxun621dlMBwbakxxJt9DM8WVPDz5sR6jiykT0ctKV845\nWd9oRvF3LF4SL0QWfU9MJypPtu7Bi4e6a6Sdsmmp3o2vex9P7pSWiYn9mXr4\nffrpNzHYoSWOLWgQ72ZUX/3v9TKpCG8of2U+msuaorVnU/dBuvcayAUXVuNY\nEOnBz9SalTzLBmOLz/ujpeK3b5cLdngS654e2XcF56dbeH8Wr20WFv9OYidP\nQJOkiFBMQNZJ9Foq+m/s+X3Gx32my145JQ+yWdyEVmiP+4MR7PUvZalmqzfW\nXIAt8wOXgQM8bdw7iBvpEgOKHJPpCb66VKChVAvSHu4asCsHty2CAwwDOi3Z\n7cijTAj8SSwQSWQwFzw0KPDU16GeW+WaBKj8eFyN8oKMg9wo2WlzuDiL1WHh\nnla9RlHOKmW0iiM84viciaA8QRlG4L6LTUeIgbWP4mUai2L0AXX4mP3XkHPw\ngm2uAw0W2iXDiiHAjJzB+Rk0brKltux6XcLV65hzk70+uekeaujYsJmJFhR+\nwQbcPO0kUU0AVPnOqwrFUdO8GakL2aNhspMqDOjIKgfHw6ND650NU+J5RCf7\ndixg4WhWOEtKlOyUMU3xxV5ZLFLJ851X4DSFaAJYOblzN1OhiyOD9eTTr0KR\nPQRhuODoX2eDz6XXrkk8Irdkp5EyhI9vKavCBjYuTdua1C0y/7mtrDPpCY9L\nt7PQ5ORcHiYsLk+8hfdQvcyll6pW+KMqJVP0whwaaJm4Ws62YZNDkakGK+0H\nZQlprGeJEyql13hwh7WrYrB8wS6Xil7tjiuYGxEljhIRKMsI9qR61EY/Gb0i\noqw8+J/GhSW1GpgAUGkuocQrrPXMmrOGZw+/irUJ19RiBjwGlGVlgWukmMxv\n5mS+CiSQpLd+1Y2WsSsVPyruA0YFp4Ggd4HIjcnBWGKgbQgLx7Iq+dpLuDxB\nmQO6+jQoBEGAYPBzeIIMKxueEoOz1126X1kpP+WCMYdnnrCLAMWugIMmwUxy\nGoaAZePm5TJTdwTSWcPF4k8AieMicqIJiZ8SInOLeUqrNOx/j77uwP81+l/a\nnLQIHDw94hCJ64OKElTiXC65RRIESuykup0a331b3OQ1LOq1zLJpMk9QSUqO\nqq3ZWLAx/lZijALY/YOOC8XAS8vkN2zvhXUU44MxtU+HVuKLUu3No2fn2asm\nPNL+teLMGwYPJ4KoF9Iu5btH0qH8pxgN3Z/W0VjnxcjUevOGlkWw7/vZGoUR\n3i/xfhQFFpRq+uVJy3Dn558agQW8kr/1CeT9kcmFOJUTp+1SgDu3RsNfZWCX\nTPjZxvtNBj3YoYkOIulf/bn/tFOsbSbmLzBYW4F19vr05T6niiEFN0ZXd70Q\nkBdJ6ogw3g7Fb6nLQ1G+SKgpDs+qiZtCHQcCTnL6dAXd3VjlETgv54uxhYKK\nXL3ZjMoA3wgVFXJDJuhEIb17LBNEghaNAEQN0l9TJkiqj1pCK/b2katdXasY\n6JrQ1AgFHacCaEpFeCjQA72ZUONkLPh57JcRu06jlKutb9NkI5ipRx9sc5zh\n4HWWPHLn5+/B97g7lm6Gfuq9fYAy5EDWX8O2EH/anXpDEjwOYGhBYKBjQ7Gz\nHcKaHxcImSrZ4PHQbMhkqwHDmj6qzac2I2fPJa/WxbYVd7l7jHi9qjA63DYV\nzw==\n=u6I2\n-----END PGP MESSAGE-----",
          "created_at": "2021-08-11T11:07:21.185748Z",
          "updated_at": "2021-08-11T11:07:58.375410Z"
        },
        {
          "id": "5670a01a-0e4d-429a-946b-44ca146e9da6",
          "user": "sander.taranov@gmail.com",
          "access_level": "Approver",
          "encrypted_keys": "",
          "created_at": "2021-08-12T12:43:41.308908Z",
          "updated_at": "2021-08-12T12:43:41.308927Z"
        }
      ],
      "created_at": "2021-08-11T11:07:21.183636Z",
      "updated_at": "2021-08-13T14:51:59.731472Z",
      "height": 902913,
      "address": "5B2A6d5W3vaFRkFPYPhRKVK5bMSDKGZWefLnF98RtKYQGazP1uBocGNifr62ZbfDhNX7N3EZ2hBENZYMpEForVYgRR2JLd9",
      "balance": "58743180000",
      "unlocked_balance": "58743180000",
      "status": "FINALIZED"
    },
    {
      "id": "136e534a-0dc7-4665-bbe8-9d12e5fc363c",
      "name": "Wallet",
      "max_amount": null,
      "min_approvals": null,
      "members": [
        {
          "id": "7a1905ef-6639-4eb1-8804-1392726ff0d9",
          "user": "bigrussianboss@gmail.com",
          "access_level": "Owner",
          "encrypted_keys": "-----BEGIN PGP MESSAGE-----\n\nwV4DfzC4jqIlG84SAQdAh0ul5tJa1shKd8fDeNz+zVp4sNCDAu5E9Ttff1iy\nnWkwSnhFXshLJNnjNv9Vgsgtmulv1vhUJRwK7PYgNJ5N3gPZf2aRXmyqlbBy\nWFf20OAF0sf9AQcFwOW1PeX3Bbvm26IVpDTk09BZAAbPRI+BGzKKLnfLkJW8\nD5vXRX7hM5rAdN3/KTI5w8+My9jjEOv37tDb1af/5dZAuFyZl+j3KSCfAdQx\nt3aCMv4CI5QA2XgMEaj45SIICUq2KfD+H+QyoN3KcxZm+48JvGio4KYlW6CR\nsmbqYeYQIkoYiDFezk918ubeQt8NYJDr7MfKIG9mCJ7Eqd7E9Shl2CjtBQJO\nQY+hK4kgDv0iDGy05x95INdKXAy7PkhGqFo224rtVNZb2neZDKcqcqUr92hz\nbtXW5A7mzUQwirvEtwGLDixg8rXyy50+mThdQHUoC6HpKYw5aypBXNTTZxYh\nDEB7Qy+EGO2eUrjvf9jvF8s2zWEGgN1U42gngy3rK1Tc25X/epzI8Lk51b74\n1RsB6z4qBqK8opGuLJE5UGcLRZtem73C0HdoHmcay9Iq1skUDCHdNZdsS9MO\nhJKlN24/DtLzu4aWyneYGHKb2wn2y9JQO9BLs74THXzvxM+CLFJ+YZHZm0p3\nBk3bA4XyJkVJasJ0Nr8sQbrBiaIfnqcA6q+VLeO+eUydcgThLp6oFTMtEyNT\nDP4Zx/z18WCDHli/5aySctyvkcLFhf3+pUI3QoFzighRJ0ajfjWBwoGgIfMo\nanGh0U6HEiSvrlpLlkmldKzR3wRxdX0qK4ZG+vjNNB4Nh6X4fSnjifVmrtNE\nwQu81g4WPodGi3ZZEjkuz98TLSzUvvcONohNxxOi6c58niDy1L4DlFzJzYZi\n8PYIRGP0i7mNuf84Ac+zq+z0/xJhoy+kw+7UCwvkHBZiiYZ3nGmC9Jns1sTf\n083SwCQILHebLvti5QAeNIdEgtG+aGDkoo9vY/IxpBA04PtTqWhjaDstgXXL\nPtH5aTnH/ib218+AoMwuUSdttqI9LuN4pQTWloE8uhzQy76LtAm5JMBEXubu\nd6uEvcHwhmhZBP31CXIs3D8SC02A2f8PDUdSPnxBtPfFErr3sGq8JEAY9OkR\nXzuQ+/ep6jl5tWiX/Qwizvoyf9iZzVgPTLBi9Vt7GBsRe2S4GxqCE/5+aQF4\nXEwS9n2pAPqXpqYDkkm4bK6wC41mFveODt6o56HrrcWSsGpGnaLUxZO4/gEp\nE9u6m2NzQQkhZat5QL3OAYzi4IqB/Pa8cOdTMufv8uDz64X/fiBTAguP1lIN\naBRgZVpKtev1Qz0OKx1dRnegRSVM1NPiEgkAsZp1b+Bt7gkakOG7yf+pdrTw\nbMG87BnEJ2k9lGixiQE9DZyF/MUD9Bdq/9/ikjK4N8qPFeu8HAq+NJJhf7gC\nJLVtKU5CX9FurMBW2iIw+PZPPBSFZPVpvGEDSkgc8NkSGvU6L2utli6deKiE\nLjRpjdhoU9EP9/MSvFWI0fbjPV8DhgpbnIPkmVnvptSs4SS1RsiTvMu5pSnd\nnSXHTSv5D0WuoIDYwiEVybuUcKwHet3i69gNkNw0cJBp0UebzdJQ1EijTAXa\nGbQnDlSDbI9sC+8mnJlzStLuyBzJYuJVHLpd8p9y6p2nAd3s/+N3jD+pSRLJ\nEeE7Otp8FWlwd64zG5/rgZ+H11MW3/yDcnJUJ8F+KNdngNL38H4y6cAGt9HJ\n7ARyn52vj2vBPokzqcd2iw7XS3ugJgKput9oteysvTQeVF/8VC/nH3ysHKLX\nlxqXR7CwceZIWsLTNEMFAu40dFhUXE9+DVeFiDC8DxuGReoDr/BstBS0lJ1T\n6nPM6fCmP8gM4K3vOyqES/zX3TiQPu/motxLbi+r1VDdAU7S5dQ6+fDhu/3g\ncF5lYIL3TQDvkiE9sMgjyf91HeUEflcCyA6kQnI1yHEMQdY0aBvNeXnmb+ra\nREt9pFi9l0BMwhBJWTZLDdltTQvMFX1p4hyo7yt3XbVQPgYPRdX0DQOLCYy7\nBAH6rhqQ/VVX+M2QHpqhUbvEHJuJbJsLNdb9+bzTVurg/lUqVk71L34OXWT5\nRSWnfw1QXR4uHhMEVcEdLo5MSAaRqT9OQp3UhSUldb9yUAtyZOp7khLa5exC\nYnD3Ty+Ot3ey2W2sArpWggZILbFABCP8+7R94WxF+pGdsfF8/ZofFsLTw5ri\nw7VicI1OjA6bgcENHWbO2q1YkqLuA3NSFfEu7Yeet3yjCeirJ8hxnYmUCjG/\nHd3L8bMkBS5DqK25QFo0In4MmuR5WmAaEfDwJt43xF1KTYjbrZB3tKtIYmdX\ndHSA8JmVT7OceuyZUgh0pYVLcAlyvtvxA0YklXjCoSv1r7UgeC54m+hmPb9P\nv8jC9y/m6EDCALxRfRD1KC0SCdlnzhvFl6uB2cfYF7yoK0cvtqVb6kgfSnS9\n8CzeEKUjTAF+1Bax4e1pGw6yOcZQ9aju8bqSd5ZgDkbiW5flQkpKUtaG6vgb\ndkntUvkxvaYAWcYsyg98lC9jFNPL2GalmB6beRpvZ9fWBfaJjM3yeYkLHquY\n/Czwxg94NwT+NEDlPT0L4dw95+GFfNnqSqVQi/qwLkP2UZC3R6WBrVbTImTG\nhBP/IX93V3Iwzobowrio+MkwaVVRUrkM/FpKTYjkpli7UMB7H1m8aOlSHy41\nkjRMhOIyDZBGOc5wdEcHqK3w3G14MfPRKHlHItjhU4B/nvo731nxTOVqIXr6\n3fIaL/hph0KXTT2gxEpLb9dIUR5CdnG7TWQmwl8zxlATmraHlVpd4rybYyia\nWphFrzeuOpBGo0MmE+hC09gXlidrIxwLYSPBO0D2FYUBP/ej6YvymNwCaSWt\nt/mg9vgunFUxAoGMeMkNJpLd8JH3BBq+CY1RgUUrqU2XnDrftoLOj+sVcvkh\nn6u/HmxwNDsTQSjvO0OMgd6NZj3FUwphv8puWD2caT1GpBr0YqLz7F5XtaSE\nZLzxww7vyj8O49+rM7YHPI4jcjk6NtDqEHkF48sImxxxvE5tXMm+USXbQ/sc\n52uuu/2BNvvhAb9N1eC1Upsp40fLaERPZ4ZVibeKHLP9uRH/QP666yk=\n=3db0\n-----END PGP MESSAGE-----",
          "created_at": "2021-08-16T10:01:37.323085Z",
          "updated_at": "2021-08-16T10:02:24.458479Z"
        }
      ],
      "created_at": "2021-08-16T10:01:37.320787Z",
      "updated_at": "2021-08-16T10:01:37.320807Z",
      "height": 902683,
      "address": "54DqTFpL4K9Yz1SxLSESFk8tvyfMbzgEwet5ohf3zUn7jffxYHZFtN24L2pHRYoJPXKnVr49sAUZzEVYpZXGjE5CHBv6wiE",
      "balance": "0",
      "unlocked_balance": "0",
      "status": "FINALIZED"
    },
    {
      "id": "fc776f0b-0233-44d4-af67-7dd90a9a4840",
      "name": "123",
      "max_amount": null,
      "min_approvals": null,
      "members": [
        {
          "id": "5aa62262-b71b-47b2-a894-05a23177d046",
          "user": "bigrussianboss@gmail.com",
          "access_level": "Owner",
          "encrypted_keys": "-----BEGIN PGP MESSAGE-----\n\nwV4DfzC4jqIlG84SAQdASxoLmM2JSwkO3vGgi1G8UGSLByT6zxgnhkSg9ot6\nymAwgJa9NZ7H992rlo2SAIkyaEYRMcSAdvqFTahjWVy6lspH63vPLGBTgbW7\n0o2d4FJG0sfWAaIL6EjXkuDs2iqOOzEttKEjxSiz2beAqbLjZgUdqIIttcMd\nDJetBRGGVXYnramQkp12hwENRT9XkBFGDGeuC0FpuJoShNA6GFm2JUqOS4st\nTJhthiGzxI1kZtiUx8ZPbWvBRU8YtrrFDK/t1FCoo8pSJtPfM2OEijzEDDxy\ncjPijtrVdNWLc6ShdNziFshsNNpsNSW0KSqmWZaJ19pmWsK23MkGsI5TVELl\nkFjWWNunS/0sM2ASURLd8bXALoJY4rahzVC4qgVhiQMRH3YlYKG+272pfStR\nUsRlgDmSL/oh2pmA2JthCIJF9AKA3/9RGB76AjZeS3ok7NO8SLJc19vj1lJG\nSAM3Ll9egYBj9gaN9Mur1VTf1sjeKZxzDW2xljt8rePvXWJRdcXXtXb77OH6\nZLU/AOkydvHASaBroxmghyPEdapQ4vOz5dpMvXVHNpXoIE9r8MtqmYiCSrjL\nM5/YacDkgwKlVXKT5DPpDxNJN4Qepy/HW6g+hKQu66vDWc//FNSfo2ZnP2nF\nitNbnK19o3cLX4jbrWPphCD51PJSBbhGV6lyW1io8mlsec1lCLRD8MZK6/zs\nNo/Tc4kmaQpNOSMeCIaipcLGO2ky5MmykxdDtqdGKVjQXn/Jf/OaDshbkAE6\nx8rW6tpqoiv9Sy9qANXZ2mz9jMWQHTAMfp3JqNWq7G+1Wpj8EyVYiXQwbPYf\nPDhRw60/CzvC22+lg2QZEN6r7zXeNfKDSEU2efp8LshDgwaAOYexDuUmwsnP\nEXvhEJa3K34pwFnUgyNhF9CAkxiI6s4JMZUU/v5Jdd9gjEr9AtN8VL3lWie9\nquIRqb34g+L45uGg7bBesufTaoCJ3fy9eIS6EdpjIP63wIelME/s4yvqFJSZ\niZVN05ilO0d6h7ZczSQ0dHwuTqd/iZ/REZU8DOD+0DLnT8yJzt579DobYBN7\npLUXTadQ9BynuBVUnfen+zcfwfGUkypfUm0acNh2ogc/lNJLDWQUY3Ir88D5\n+heOdbAipXkWKSGRSmAL6B4EeFzdFhoVNEIJPkv4qnSo9VGuKPkUMfQMt7qp\nCelEuYdcBKE2v5vbhWclpvwu3vvEunJ1MT8J3+3tG/q7OHr3UTKicG9fB+Pg\nbw68dF6ZuZAl1639DTJnYkSsOD2Wfc8IKng8x24zBXzfavcONdFjfcHCDMDD\nH+6p5BX+kL0AMzkhCx1MJIgDp0SZ8SJkrCXtQNMNaZ8qq4vscAicmrNqtn3v\nkF6ljIsByvGqW/B6ots8KEnPuLBcCsTnNrT/drpbByfb5sFthyp8GS7Plt8H\nmQ1srygL8hAeuRProPDO77mBxXm/HxnTN3YC2D25WQmtUXcCHsTWVDYZIqVC\nd/GO2tChRX70uMcbhA5lxN5CfiOlgOS+sA1rSQONqczliI0r8sDNUJPcuhcF\nZdMONKPM6kgqG2Vbzour5QP+fJcBBCwpPffIoNpdWIz+wSecYLI883ZqMIn2\nPEpkfQKIKLdUWJmzlJc6EG7ozmbhvMv0oa6NkI7FJJ57RpGZG8dHn9mU3ttb\nE0VRszRfMLxhEr0rhzdNefO156aXFD4LsQwLZSrGuokXRfYwyF2QoVJZsmVi\nRvBThZjVlVhbOdjsRtuCW5HPlP1AP9mhR5QHx1RkYV2KfG/9ciarN4d29Imr\nupqVqTFRjt0H7SqwPO/JniWCfm1lPLLxvkhR+GLIKUUi9Byb7B+UVGwwgXy9\nBZ2xwlOyHkHNw25xSIA9Xak5PoKzckTkc6lyTen7emZ747ulCitu2CnQyBZ4\nFa5wNhEHf8f02jO+AtM5ONqhek8xvga015mRCmbImuaTFFagOUm669s68q5j\nSlOYG+0ww2/tcRX6218kiFmVsNEipAnlVKRVWVGHIqqIZoKTRsOSCDWFdvTU\nCiFGUudHXKUOnaKExve6hEk2IRyKPvZxKO3oJtX9FAzQLKwDMj+ax30LVfEh\nFqrHfQeqbblp3ENgRql2PTW+uL73AVOX6yRmrbS1K3Ec1jq2JxUzrKkCiRod\n++kGdT2JxuA9JIsx87oOYLShwKe8Rnz1FBcQOaH/NcGfCJl7+n7qGwbUXMys\npstyEYJYN4eUjFxvkFfVY3P2V7f5IZdm02G9ZTztW/R5rYVXQl2U5Zq/63bb\n7DonwImwPW9/3v0bxQ/0/bX9pggcSPPnFjyVdYIAjGc067szzWbEbCwFce2f\ndIMf0uNZHOCg7HQUr/cLiZkayHJNbjBzIRCUU0LgwORTgD8AI+prGQgSWfAV\nwToobHa4LncZ7CD0ugn/zNsGLzat7QtOHWyNkgafttuuFYWinwRNugnUODOd\nyGlrvD99wUo7GHGlhvlpYJcaaFdq4F0FKjNe2Zh/HLkOGUzWywbdGTIbExMJ\nMtgW8ltBGHK71S8RiUx6CVNB0YDnfX7a28MxUEMoFyPeheCBZdcurdlYMfga\nDxC0x7TRHl7G82cFO0kkmQGFX4HUQRmBWWgB55JtwJJyjj/SY1lNm1AELRCd\nwjNysU/E3QPBUgTvPSBv6JmRMpCjEpwyppUGH77YNym487qKwk3ygyU4DmC5\nyCdTYadh6jEBxPB1Gdk/Q4iItnJrfqE17RCh5BdjdQLtCdIyiEQmz7zHsw7q\n7x/JowvxZgsfNH42nqTXkpcTZthfBQzh0/C01E01MjGfGEVR8qUIhCaCC1uU\n/D5ATMqtaNC0moc6KXxQ5caakvfc2vSx3RW2EFK1zCyRa/6m78JDDNHjfmOT\ny5DBX4iRRmGV3VMHD5So5Kvxm+MjJC4ECTlEkZ3Nd+/zIKQri3OG9CubqII0\nzTuHeoIHhXVlorFDKr56qb5Pt5KzCvjR4OkYsOQ0+TyC+BkUgTKXBFECqW/Q\neaf1TLvnBc6K1NFnAdZ6xRWffeRWchQ/bHvdS3x9dKdmUV2CJ6Y0ksTC4BE+\nB/8=\n=M3fv\n-----END PGP MESSAGE-----",
          "created_at": "2021-08-13T14:00:34.025829Z",
          "updated_at": "2021-08-13T14:01:00.788846Z"
        }
      ],
      "created_at": "2021-08-13T14:00:34.022991Z",
      "updated_at": "2021-08-13T14:00:34.023012Z",
      "height": 902706,
      "address": "5ANxmDSh5CmEFMC6ZhLt4THQ1RLakWXkUW3Qm3PyZog4fv4zYma2UF1T1nAgQUHSRDg2gqn6mqHgr9RxUKmNUfd561ERxAm",
      "balance": "0",
      "unlocked_balance": "0",
      "status": "FINALIZED"
    },
    {
      "id": "2432819a-b5b5-4105-8d0c-3d7d220c139c",
      "name": "Wallet",
      "max_amount": null,
      "min_approvals": null,
      "members": [
        {
          "id": "c4af3423-37a1-42aa-ac6f-668b8455d20c",
          "user": "bigrussianboss@gmail.com",
          "access_level": "Owner",
          "encrypted_keys": "-----BEGIN PGP MESSAGE-----\n\nwV4DfzC4jqIlG84SAQdAYexweje99iRFDuBBFEOrJscHN1SL93h/pQlO9Oyj\nFxkwo57nQ4GutvvGvBoK7qvL2tTLSnAhDFD7ca/pPv52/t3h1vRyKzt1Nv2o\nqricpCdC0sfzAfV1rcY4lKDBcY3B85IliRM8PV4id+6+8Bd45JN5//N2H+Ty\nJEakSdGYNP0qRULk87SfMTc8QG6bYxUtt6mzBohYgaDF3XNPfX/UqpAG58DU\nBfxoW712XrIbkp5P7XghRPXBNxPWHgmVJldjgP/VbgI5CFciScmN91fVFiC4\nU346ZMN7Vpl/si+x637pEF2cmCezwCmHkw8IouWKbDsrtwL3DNLeJdpNc3lj\nkNXTUUFqPCvknxzd5JXdTfeZQNig6IygfN8hFp5xBrROn7Q2xtktahG5pFUW\nzCkHDT3n0pH5QVbl1P3LOAoVUfrbza4yU71JDuQy7D3yG78Pl+2dbzQSe55B\nW79DTSVF3LU1BSplEIIABGa5p+Gh1FajKa8yDR97PGfYbSUnKgMfsJApHUKA\n6YAHTii1NiXbHwlqEmXhjehV9BcKvYfgC7ek4OXvYEV6jcISsh3VEKe8k7B5\nSaBTsZGsHVqjyPw1Iy3JDyVdzglrKk/IihOEV3M6Pz/5uKEvTAx2GlE3vlR7\nYtl3iKaeksDFMiTIb1ZIoLIkYVTOTd6Luzbt3fv1+X2WiYERXbc7kmK2jycE\nIf8OQE2HW0/x8PSGqhPri/BSA3/Z7irOgfqcMHniC2UpGQB9mDHN4on+zJEY\nO2QnlUvNaxyy4kBlySsShs7uoSXGfup9Jy3Up/cyL4U0imj+wjXjgcu8OuHL\nfjyj0X7RmG53c8Z8dqwDfkX8PEDkXK7Br7zy11y++hw1luhEvnz+GKtvT2pH\nYenhCebAEEA49lfpjyjEuz4itk5I4bKHDXJkWlq95cFRlDoZCscA/qsECBC9\n3MUk0slndYvH46xKR9cyUyhk8ttBbGbjjFkp2pVG/apxso1VM3c3M5ggbTO5\nHpM1X6zVR/WprSmwxF/jnEiwh0O5FykRrsyqk5scqXx8XgJ0IZjiRXQooY6c\nSX6t4aO7Rcg188W5U6OU82YcLiabN/LglTBJ6VF9RXGX8BWp4dwqgX1X12yo\n/p/AxfHIHa6hn5KjrGnS0FawqVcxr1fdZMAe4TFkRHcR72x1E2CfIK7Mn6Xl\nyQpaFsPLw8lT2iRHd24sikv+I8JifGMW07fIF917ZeW9MV+XZMLJJp0/jIpq\n5P02u6KTatK1A9olZCnEZF1MMzeyPipZCZHq0E6GgyUPHVp27G0iv1MmPGUl\nPifzb+Dzst/pK9t1GTAW4YE2USX/+IDpRwc1+n8iwlMs08WQIHgq6NCSPAe4\neQhrNvbrmosiRtvVUGxIbKZzCNUH0EMy5+JMtiLKxesbP3rv261611DEnMYq\nvdl5c715BnEGQC9EWC+KVypylzQQKLuZPMK0BVPkcprQG93X5+V9sEDbit/V\nqFer6+JMIM7IOy0ycbU+4QBnNzPvultKo7DLZvosvAOl/wRf++AqVGe+GMAy\n97Tvny39Fdr0qxrCBqqWb5ZFn8YMWt3Lmx1GklHq4zy+UsZhhpf9Wre8oLt0\n/8ZS9WyCzM/g/3b5hHzCBnEv1DPgPPKPfREACFM8mYsHqazvVXI+OVuCbom4\n0vqJu/wSdM09Fb65yVMhGM1xNYUv11TkNpzQz7cvOCzWC9yfLstKUEmcHTnm\naIzGeJHDFbVaV4z+3iBvzLat7pNcSQyZA1b9+C8jCD34PVt89l5nIKyLaRzi\nWXHbycPfVHv4CGdO7w7R7+3i8hyqB4N8xQ1bn9lwiflGaao3QQjPuOoB8kp6\ny9YSqRnuBGXohYTOpi489TA51y6k7zt7/z2sYja8D/2TmkXblO/DI6mBlArT\nff8aNkW+5YuMFlq5f2w9V7rRUY2/Cq1lMfvaCIc77QTqHw9oHUBE2q+7Wksg\nFTZLW4W98rXdu2vAZctotvOsEk+4h3DNH/QzYoh3fPyM6PS/1TMJ5FFRP5X4\n49L3qk9bLVhNPgIHLYSIadbTxkZ9s3Bzjlq8rAQ66JSF1pTLA0icZ+BL6LUn\njaJR/+mzW1SMM4qF/53xLGARub145FfI5tfa4x1Rvlg68kwBG8XaFQOBse9z\n3x4arfwk/OsNvti77KMxlptQGQTymaViNjx3stGyxdyaIKXL93dOKG/XWseP\nRB7kHNug7518Ra5ryPX8ir34ud4CAbWxSX9h63zAX0djj0cgJXNOv61yC8CS\nZ4Exis2+dV/LS5XS40VzDHXjO4Ubclw9nQR7oS2AsyHFIhUokKmStqb9FVhS\nDR6Qdw5q5UFvGVk89Y/poehwt5RzW9z+hXaiboKGhscJx8/2/HzEeJP8yqdO\njglQxL8hBtDonW8esmYVrWDwZ9UQKkYx/HM1KwDNj/z5QHHJ5BB09o8sa3qC\nYtPvgmtu8Uo2crHpBOdrTICQdXPBvuLyrvbw44O4w4Pdz/M3mhL3iIJ6rW2r\nVdlQaFalSsVjcode/SkR4Lk1Z3RQYqdH/7UYZ1X6l5WRYuyR0nBsBd/bpy01\nu3Plc0ccpt87YjdNC5peeL1H01Pru5anNp/6VI+uRwaEHDfQWCiuzpHuQ9DL\nGaNtqNVshN1WGoI2P2Ga/Gbsa8MVW/gy4n3gm3RzULCu+geT4MO1V1HwVx6h\nFhqFGcmfGE7iH+4emqLI99CNqCLNjrApjrX2/9Y2ZVtAxTjpwHNARA6u/fom\nl0HeXjgCPpCKmawrMv2FfnwRAjpJF+gwLKyLnxyhIaJprkktPp8MgF9OToUX\nUXBDAewa6d2tbcxdGnCjYsU6vuSXxv9Y9uRur3+2fbDj9zPLZnn+NjB+YW6+\ny86z2loMBQ6MzanZK1Nh56VIIprOA7PxCWLW0CLM9JfNdmiuc8D9EH8UdAsj\n2+m2/m3ovUZq8IUhJBUVv9RQebssw46EhKJj4lyEGB3v4ZOpvPb0x+FIr3aQ\nI7S3SjyC5AkX/MBxuU2zDsW2ouPv/E24tVuYfHmUVT07UUeiS4xAFW+7ulQ5\nFz32stgTwkDvA75oJeGkZTNZxnrFApV3NPsQdA/nJg==\n=kbCq\n-----END PGP MESSAGE-----",
          "created_at": "2021-08-13T14:01:28.126177Z",
          "updated_at": "2021-08-13T14:01:44.666933Z"
        }
      ],
      "created_at": "2021-08-13T14:01:28.124128Z",
      "updated_at": "2021-08-13T14:01:28.124148Z",
      "height": 902695,
      "address": "534hYM1PqfTQPc7TmQEbkLFwsJLsXkVSUjndXHXH1NFhU9izwx1mTpX1PJGQaSHkAdSw2BfTRjFxVAZhzYKZjXBELETf4vr",
      "balance": "0",
      "unlocked_balance": "0",
      "status": "FINALIZED"
    }
  ]
}